{
    "id": "principia-apochrypha",
	"title": "Principia Apochrypha",
	"description": "This is the Principia Apochrypha, a free book on running TTRPGs in the old-school style. It has been converted to JournalEntry format. Official site for the book: https://lithyscaphe.blogspot.com/p/principia-apocrypha.html",

	"authors": [
    	{
      		"name": "Snowfall"
    	}
  	],

	"version": "1.1.2",
	"compatibility": {
		"minimum": "10",
		"verified": "11"
	},
	
	"packs": [
	{
        "name": "book-principia-apochrypha",
		"label": "Book: Principia Apochrypha",
		"module": "principia-apochrypha",
		"path": "./packs/principia-apochrypha.db",
		"type": "JournalEntry"
	}
	],

	"url": "https://gitlab.com/snowbottle/foundryvtt-principia-apochrypha",
	"manifest": "https://gitlab.com/snowbottle/foundryvtt-principia-apochrypha/raw/master/module.json",
	"download": "https://gitlab.com/snowbottle/foundryvtt-principia-apochrypha/-/raw/master/distribution/foundryvtt-principia-apochrypha-v1.1.2.zip",

	"license": "https://gitlab.com/snowbottle/foundryvtt-principia-apochrypha/-/raw/master/LICENSE.txt",
	"readme": "https://gitlab.com/snowbottle/foundryvtt-principia-apochrypha/-/raw/master/README.md"
}
